{
  "playlists": [
    {
      "id": 1,
      "name": "Angular TOP 202",
      "color": "#00ff00",
      "favourite": false
    },
    {
      "id": 2,
      "name": "Angular Greatest Hits",
      "color": "#0000ff",
      "favourite": false
    },
    {
      "id": 3,
      "name": "The Best of Angular",
      "color": "#ff0000",
      "favourite": true
    }
  ]
}